<svg xmlns="http://www.w3.org/2000/svg" xmlns:xlink="http://www.w3.org/1999/xlink" width="370" height="370" viewBox="0 0 370 370">
    <defs>
        <filter id="q9c8qut23a" width="153%" height="153%" x="-26.2%" y="-23.8%" filterUnits="objectBoundingBox">
            <feMorphology in="SourceAlpha" operator="dilate" radius="1" result="shadowSpreadOuter1"/>
            <feOffset dx="1" dy="10" in="shadowSpreadOuter1" result="shadowOffsetOuter1"/>
            <feGaussianBlur in="shadowOffsetOuter1" result="shadowBlurOuter1" stdDeviation="30"/>
            <feColorMatrix in="shadowBlurOuter1" values="0 0 0 0 0.898039216 0 0 0 0 0.898039216 0 0 0 0 0.898039216 0 0 0 1 0"/>
        </filter>
        <filter id="fyicu2n73c" width="142.4%" height="142.4%" x="-20.8%" y="-17.2%" filterUnits="objectBoundingBox">
            <feMorphology in="SourceAlpha" operator="dilate" radius="1" result="shadowSpreadOuter1"/>
            <feOffset dx="1" dy="10" in="shadowSpreadOuter1" result="shadowOffsetOuter1"/>
            <feGaussianBlur in="shadowOffsetOuter1" result="shadowBlurOuter1" stdDeviation="15"/>
            <feColorMatrix in="shadowBlurOuter1" values="0 0 0 0 0.898039216 0 0 0 0 0.898039216 0 0 0 0 0.898039216 0 0 0 0.6 0"/>
        </filter>
        <circle id="i9naublyfb" cx="185" cy="185" r="185"/>
        <circle id="h2946g0l7d" cx="185" cy="185" r="125"/>
    </defs>
    <g fill="none" fill-rule="evenodd">
        <g>
            <g>
                <g fill-rule="nonzero" transform="translate(-356 -1036) translate(356 1036)">
                    <use fill="#000" filter="url(#q9c8qut23a)" xlink:href="#i9naublyfb"/>
                    <use fill="#FFF" xlink:href="#i9naublyfb"/>
                </g>
                <g fill-rule="nonzero" transform="translate(-356 -1036) translate(356 1036)">
                    <use fill="#000" filter="url(#fyicu2n73c)" xlink:href="#h2946g0l7d"/>
                    <use fill="#FFF" xlink:href="#h2946g0l7d"/>
                </g>
                <text fill="#AAA" font-family="OpenSans-Bold, Open Sans" font-size="32" font-weight="bold" letter-spacing="4" transform="translate(-356 -1036) translate(356 1036)">
                    <tspan x="127.172" y="198">START</tspan>
                </text>
            </g>
        </g>
    </g>
</svg>
