<svg xmlns="http://www.w3.org/2000/svg" width="256" height="256" fill="none" viewBox="0 0 256 256">
    <path fill="#F3F3F3" d="M128 218.666c-50.093 0-90.667-40.573-90.667-90.666 0-50.094 40.574-90.667 90.667-90.667v181.333z"/>
    <path fill="#FF9089" d="M48 128c0 44.183 35.817 80 80 80V48c-44.183 0-80 35.817-80 80z"/>
    <path fill="#F3F3F3" d="M122.667 138.667h-32L128 80v96l-10.667 16 5.334-53.333z"/>
    <path fill="#E6EBF5" d="M128 37.333c50.093 0 90.667 40.573 90.667 90.667 0 50.093-40.574 90.666-90.667 90.666V37.333z"/>
    <path fill="#FF6E65" d="M128 208c44.183 0 80-35.817 80-80s-35.817-80-80-80v160z"/>
    <path fill="#E6EBF5" d="M133.333 117.333h32L128 176V80l10.667-16-5.334 53.333z"/>
</svg>
