<svg xmlns="http://www.w3.org/2000/svg" width="1080" height="1920" fill="none" viewBox="0 0 1080 1920">
    <path fill="#fff" d="M0 0H1080V1920H0z"/>
    <g filter="url(#filter0_i)">
        <circle cx="540" cy="449" r="987" fill="#fff"/>
    </g>
    <defs>
        <filter id="filter0_i" width="1974" height="1974" x="-447" y="-538" color-interpolation-filters="sRGB" filterUnits="userSpaceOnUse">
            <feFlood flood-opacity="0" result="BackgroundImageFix"/>
            <feBlend in="SourceGraphic" in2="BackgroundImageFix" result="shape"/>
            <feColorMatrix in="SourceAlpha" result="hardAlpha" values="0 0 0 0 0 0 0 0 0 0 0 0 0 0 0 0 0 0 127 0"/>
            <feOffset/>
            <feGaussianBlur stdDeviation="60"/>
            <feComposite in2="hardAlpha" k2="-1" k3="1" operator="arithmetic"/>
            <feColorMatrix values="0 0 0 0 0.603922 0 0 0 0 0.635294 0 0 0 0 0.721569 0 0 0 0.24 0"/>
            <feBlend in2="shape" result="effect1_innerShadow"/>
        </filter>
    </defs>
</svg>
