<svg xmlns="http://www.w3.org/2000/svg" width="608" height="608" fill="none" viewBox="0 0 608 608">
    <path fill="#F3F3F3" fill-rule="evenodd" d="M304.054 50.666v46.613l-63.333 4.054V78.279c0-15.326 9.5-27.613 20.9-27.613h42.433z" clip-rule="evenodd"/>
    <path fill="#E6EBF5" fill-rule="evenodd" d="M304.054 50.666v46.613l63.334 4.054V78.279c0-15.326-9.5-27.613-20.9-27.613h-42.434z" clip-rule="evenodd"/>
    <path fill="#F3F3F3" fill-rule="evenodd" d="M304.054 88.666v468.54c-2.533.127-5.193.127-7.726.127h-.254c-20.266 0-40.28-3.04-59.66-8.994-3.04-1.013-5.826-1.646-8.613-3.04-15.96-5.7-25.967-20.646-25.08-37.366l22.673-401.66c.254-2.914 1.14-5.447 3.04-7.854l.254-.253c2.533-3.167 6.713-5.32 11.146-5.32l13.554-.887 50.666-3.293z" clip-rule="evenodd"/>
    <path fill="#F3F3F3" fill-rule="evenodd" d="M304.054 88.666v76c-38.76 0-70.933-29.007-75.366-66.5 2.533-3.167 6.713-5.32 11.146-5.32l13.554-.887 50.666-3.293z" clip-rule="evenodd"/>
    <path fill="#E6EBF5" fill-rule="evenodd" d="M304.054 88.666v468.54c2.534.127 5.194.127 7.727.127h.253c20.267 0 40.28-3.04 59.66-8.994 3.04-1.013 5.827-1.646 8.614-3.04 15.96-5.7 25.966-20.646 25.08-37.366l-22.674-401.66c-.253-2.914-1.14-5.447-3.04-7.854l-.253-.253c-2.533-3.167-6.713-5.32-11.147-5.32l-13.553-.887-50.667-3.293z" clip-rule="evenodd"/>
    <path fill="#E6EBF5" fill-rule="evenodd" d="M304.054 88.666v76c38.76 0 70.934-29.007 75.367-66.5-2.533-3.167-6.713-5.32-11.147-5.32l-13.553-.887-50.667-3.293z" clip-rule="evenodd"/>
    <path fill="#5FD4E0" d="M375.924 533.062c10.763-3.911 17.221-13.952 16.715-25.426l-25.326-406.302H304v443.333c17.348-.391 47.105-3.39 63.567-8.606 1.013-.26 1.899-.652 2.912-.912 1.646-.522 3.039-.913 4.052-1.435l.633-.391.76-.261z"/>
    <path fill="#6CE3FF" d="M304 544.667V101.334h-63.567l-25.072 406.302c-.506 11.474 5.952 21.515 16.715 25.426l.76.261.633.391c1.013.522 2.406.913 4.052 1.435 1.013.26 1.899.652 2.912.912 16.462 5.216 46.219 8.215 63.567 8.606z"/>
</svg>
