<svg xmlns="http://www.w3.org/2000/svg" width="96" height="96" fill="none" viewBox="0 0 96 96">
    <path fill="#6CE3FF" fill-rule="evenodd" d="M42.068 8c-.985 0-1.782 1.07-1.782 2.384v7.939H48V8h-5.932z" clip-rule="evenodd"/>
    <path fill="#5FD4E0" fill-rule="evenodd" d="M55.714 10.384c0-1.317-.8-2.384-1.782-2.384H48v10.323h7.714v-7.939z" clip-rule="evenodd"/>
    <path fill="#F3F3F3" fill-rule="evenodd" d="M38.653 17.436l-6.485 6.57c-.802.814-1.278 1.858-1.332 2.96l-.83 15.466c-.039.766.118 1.515.45 2.19.331.682.838 1.287 1.489 1.758 2.172 1.592 2.584 4.509.912 6.564l-.02.022c-.692.85-1.052 1.892-1.026 2.957l.691 27.338c.065 2.547 2.3 4.592 5.05 4.619l10.114.099V88l.329-.002L48 15.742h-7.714s-.792.849-1.633 1.694z" clip-rule="evenodd"/>
    <path fill="#E6EBF5" fill-rule="evenodd" d="M65.164 26.964c-.054-1.1-.53-2.147-1.332-2.958l-6.485-6.572c-.841-.846-1.633-1.692-1.633-1.692H48l.005 72.256.33.002v-.021l10.112-.1c2.752-.029 4.986-2.073 5.05-4.621l.692-27.338c.026-1.062-.334-2.106-1.026-2.954l-.02-.024c-1.672-2.056-1.26-4.97.912-6.562.651-.474 1.158-1.076 1.487-1.759.334-.674.49-1.426.452-2.192l-.83-15.465z" clip-rule="evenodd"/>
</svg>
