<svg xmlns="http://www.w3.org/2000/svg" xmlns:xlink="http://www.w3.org/1999/xlink" width="1080" height="223" viewBox="0 0 1080 223">
    <defs>
        <filter id="g0f8jot0da" width="122.4%" height="208.5%" x="-11.2%" y="-53.4%" filterUnits="objectBoundingBox">
            <feOffset dy="2" in="SourceAlpha" result="shadowOffsetOuter1"/>
            <feGaussianBlur in="shadowOffsetOuter1" result="shadowBlurOuter1" stdDeviation="40"/>
            <feColorMatrix in="shadowBlurOuter1" values="0 0 0 0 0.898039216 0 0 0 0 0.898039216 0 0 0 0 0.898039216 0 0 0 1 0"/>
        </filter>
        <path id="yu1axm08ib" d="M71 0h938c39.212 0 71 31.788 71 71v152H0V71C0 31.788 31.788 0 71 0z"/>
    </defs>
    <g fill="none" fill-rule="evenodd">
        <g>
            <g>
                <g transform="translate(0 -1697) translate(0 1697)">
                    <use fill="#000" filter="url(#g0f8jot0da)" xlink:href="#yu1axm08ib"/>
                    <use fill="#FFF" xlink:href="#yu1axm08ib"/>
                </g>
                <path stroke="#AAA" stroke-linecap="square" d="M540 40L540 183" transform="translate(0 -1697) translate(0 1697)"/>
                <text fill="#575757" font-family="OpenSans-ExtraBold, Open Sans" font-size="18" font-weight="600" letter-spacing="1.5" transform="translate(0 -1697) translate(0 1697)">
                    <tspan x="213.131" y="104">JUST WATER?</tspan>
                </text>
                <text fill="#575757" font-family="OpenSans-ExtraBold, Open Sans" font-size="18" font-weight="600" letter-spacing="1.5" transform="translate(0 -1697) translate(0 1697)">
                    <tspan x="732.95" y="104">LEARN MORE</tspan>
                </text>
            </g>
        </g>
    </g>
</svg>
